name,unroll_factor,target_ii,achieved_ii,adder,multiplier,lut_usage,ff_usage,dsp_usage,achieved_frequency,latency_min,latency_max
adder_chain,170,1,1,3,0,16012,43572,0,689.66,12,12
adder_chain,306,2,2,1,0,28804,58889,0,341.18,12,12
adder_chain,306,3,3,1,0,21301,58922,0,449.44,15,15
adder_chain,612,4,4,3,0,53092,118548,0,353.61,12,12
adder_chain,765,5,5,3,0,50820,148800,0,284.33,13,13
approx1,90,1,1,4,3,13994,41687,810,537.63,32,32
approx1,207,2,2,2,1,35663,92587,1863,420.52,30,30
approx1,306,3,3,1,1,51422,154271,2754,279.10,30,30
approx1,324,4,4,4,3,53278,164795,2916,284.17,35,35
approx1,405,5,5,4,3,65943,204047,3645,259.07,32,32
bellido,90,1,1,5,3,8058,27759,810,500.75,24,24
bellido,207,2,2,2,1,19119,59133,1863,471.25,21,21
bellido,306,3,3,1,1,27979,86474,2754,302.76,23,23
bellido,408,4,4,5,3,37146,115352,3672,234.52,23,23
bellido,510,5,5,5,3,46218,144186,4590,225.38,25,25
caprasse,92,1,1,3,6,16183,58224,1104,546.15,31,31
caprasse,207,2,2,1,3,38027,135286,2484,467.73,28,28
caprasse,306,3,3,1,2,39512,244467,3672,240.33,29,29
caprasse,324,4,4,3,6,39693,252353,3888,195.16,34,34
caprasse,405,5,5,3,6,56120,257278,4860,233.43,31,31
dct,12,1,1,32,22,11031,30529,756,693.00,100,100
dct,27,2,2,16,11,21651,65873,1701,433.65,90,90
dct,44,3,3,10,7,34433,101430,2772,290.61,84,84
dct,66,4,4,8,5,54274,149360,4158,246.31,76,76
dct,81,5,5,6,4,63748,181710,5103,248.20,77,77
deriche,6,1,1,35,45,8694,31244,582,701.26,213,213
deriche,14,2,2,17,22,19248,72684,1344,406.50,187,187
deriche,27,3,3,11,15,36311,119419,2592,366.03,152,152
deriche,32,4,4,8,11,41232,141399,3072,167.64,167,167
deriche,39,5,5,7,9,51106,196925,3744,228.41,175,175
fig3,170,1,1,2,1,14999,42301,510,690.61,18,18
fig3,306,2,2,2,1,31297,81355,918,604.59,18,18
fig3,459,3,3,2,1,38472,140562,1377,298.51,18,18
fig3,612,4,4,2,1,40012,176548,1836,451.26,21,21
fig3,765,5,5,2,1,34050,199395,2295,383.00,21,21
gaussian,33,1,1,8,9,8801,43381,891,602.77,46,46
gaussian,66,2,2,4,4,16670,85670,1782,422.65,44,44
gaussian,102,3,3,2,3,25668,132211,2754,303.49,44,44
gaussian,153,4,4,2,2,46848,198396,4131,241.95,40,40
gaussian,207,5,5,1,1,62787,268164,5589,258.93,37,37
iir8,22,1,1,7,14,22859,69520,990,558.66,114,114
iir8,33,2,2,7,7,28116,94576,1485,310.08,131,131
iir8,52,3,3,4,5,35404,137462,2340,362.19,128,128
iir8,81,4,4,3,3,48645,232505,3645,297.89,118,118
iir8,102,5,5,2,3,60902,270392,4590,79.41,126,126
level1_linear,138,1,1,2,2,8988,39396,828,493.10,26,26
level1_linear,306,2,2,1,1,24958,96938,1836,372.16,25,25
level1_linear,414,3,3,2,2,24591,137202,2484,327.44,26,26
level1_linear,552,4,4,2,2,35013,171130,3312,285.96,28,28
level1_linear,690,5,5,2,2,40241,214128,4140,204.67,28,28
level1_saturation,90,1,1,5,2,15934,49162,540,591.72,32,32
level1_saturation,207,2,2,2,1,35271,119896,1242,489.24,29,29
level1_saturation,306,3,3,1,1,49347,165453,1836,153.73,31,31
level1_saturation,324,4,4,5,3,52258,172517,1944,339.56,33,33
level1_saturation,405,5,5,5,3,67800,193649,2430,290.78,32,32
poly,90,1,1,3,4,3401,6711,11,529.66,1059,1059
poly,306,2,2,1,2,11178,20522,11,320.92,2083,2083
poly,306,3,3,1,1,11127,20558,11,311.92,3105,3105
poly,468,4,4,3,4,9329,31207,11,400.16,4131,4131
poly,585,5,5,3,4,11630,38576,11,348.68,5151,5151
poly10,44,1,1,9,9,18368,67309,1320,558.97,106,106
poly10,81,2,2,4,5,42791,139564,2430,400.96,108,108
poly10,153,3,3,3,3,68006,280237,4590,316.66,103,103
poly10,207,4,4,2,2,67557,415260,6210,260.76,102,102
poly10,306,5,5,1,2,135042,586763,9024,78.06,98,98
poly20,20,1,1,19,18,21342,72432,1140,532.48,208,208
poly20,36,2,2,9,9,71477,141398,2052,369.41,213,213
poly20,52,3,3,6,6,84873,215151,2964,308.83,214,214
poly20,81,4,4,4,4,104868,387171,4617,279.02,207,207
poly20,117,5,5,3,3,136360,530287,6669,97.51,199,199
poly3,136,1,1,2,3,21391,76388,1224,597.37,34,34
poly3,306,2,2,1,1,48099,161403,2754,337.27,34,34
poly3,351,3,3,2,3,43540,201261,3159,240.62,33,33
poly3,468,4,4,2,3,50130,302705,4212,126.74,37,37
poly3,585,5,5,2,3,65212,327378,5265,282.73,35,35
poly4,90,1,1,3,4,10532,50901,990,629.72,46,46
poly4,306,2,2,1,2,39551,201280,3366,303.03,42,42
poly4,306,3,3,1,1,29338,200478,3366,301.11,45,45
poly4,468,4,4,3,4,29077,351758,5148,217.72,46,46
poly4,585,5,5,3,4,38733,392162,6435,206.74,45,45
poly6,68,1,1,5,6,14277,58134,1224,487.57,66,66
poly6,153,2,2,2,3,36953,146590,2754,318.07,64,64
poly6,306,3,3,1,2,58433,316819,5508,213.68,60,60
poly6,306,4,4,1,1,42929,340679,5508,222.27,66,66
poly6,306,5,5,1,1,42937,352210,5508,208.86,67,67
poly8,55,1,1,7,7,17801,67477,1265,634.92,85,85
poly8,117,2,2,3,4,46430,160854,2691,413.56,84,84
poly8,207,3,3,2,2,66039,306681,4761,333.44,81,81
poly8,306,4,4,1,2,75036,487427,7038,222.12,82,82
poly8,306,5,5,1,1,75083,458398,7038,80.48,83,83
poly_quadratic,138,1,1,2,2,5284,43984,828,474.16,27,27
poly_quadratic,306,2,2,1,1,11700,98400,1836,388.05,27,27
poly_quadratic,459,3,3,2,2,10913,143513,2754,318.57,26,26
poly_quadratic,612,4,4,2,2,14717,226356,3672,320.00,29,29
poly_quadratic,765,5,5,2,2,17846,263298,4590,194.21,31,31
rgb,46,1,1,3,9,12316,51449,1242,562.11,34,34
rgb,81,2,2,3,4,20443,96917,2187,346.14,37,37
rgb,117,3,3,2,3,28889,140960,3159,393.86,38,38
rgb,207,4,4,1,2,40171,217851,5589,219.39,31,31
rgb,207,5,5,1,1,51303,217956,5589,286.37,36,36
sobel,50,1,1,11,4,8474,27715,150,614.25,34,34
sobel,102,2,2,5,2,19296,57703,306,265.32,34,34
sobel,153,3,3,3,1,27566,83778,459,459.56,34,34
sobel,207,4,4,2,1,37391,111540,621,510.46,33,33
sobel,207,5,5,2,1,37463,106571,621,509.16,38,38
