int_poly_quadratic
int_poly_quadratic_765_3060_700
results/int_poly_quadratic_765_3060_700/solution1/syn/report/int_poly_quadratic_csynth.rpt
BENCH, UNROLL_FACTOR, LUTs, FF, DSP, BRAM,FREQ, Latency, II,
int_poly_quadratic, 765, 44231, 248670, 4590, 0, 5.017,
+ Latency: 
    * Summary: 
    +---------+---------+-----------+-----------+-----+-----+---------+
    |  Latency (cycles) |   Latency (absolute)  |  Interval | Pipeline|
    |   min   |   max   |    min    |    max    | min | max |   Type  |
    +---------+---------+-----------+-----------+-----+-----+---------+
    |       27|       27| 38.583 ns | 38.583 ns |   27|   27|   none  |
    +---------+---------+-----------+-----------+-----+-----+---------+

--
        |          |  Latency (cycles) | Iteration|  Initiation Interval  | Trip |          |
        | Loop Name|   min   |   max   |  Latency |  achieved |   target  | Count| Pipelined|
        +----------+---------+---------+----------+-----------+-----------+------+----------+
        |- loop1   |       25|       25|        21|          5|          5|     1|    yes   |
        +----------+---------+---------+----------+-----------+-----------+------+----------+


