strict digraph  {
0 [label="+"];
1 [label=x];
2 [label=y];
3 [label="+"];
4 [label=z];
5 [label="+"];
6 [label=a];
7 [label=ret];
0 -> 3  [h_edge=2];
1 -> 0  [h_edge=0];
2 -> 0  [h_edge=1];
3 -> 5  [h_edge=4];
4 -> 3  [h_edge=3];
5 -> 7  [h_edge=6];
6 -> 5  [h_edge=5];
}
